…
Fires %>% 
mutate(longitude = round(longitude, digits = 1), latitude = round(latitude, digits = 1)) %>% 
    
group_by(longitude, latitude) %>% 
summarize(total = n()) %>% 
ungroup() %>% 
slice_max(total, n = 20) %>% 
rename(`Total Fires In Area` = "total")

## # A tibble: 21 x 3
##    longitude latitude `Total Fires In Area`
##        <dbl>    <dbl>                 <int>
##  1      150.    -32.7                   279
##  2      150.    -32.6                   207
##  3      151.    -32.7                   185
##  4      148     -35.5                   183
##  5      148     -35.4                   181
##  6      148.    -37.1                   179
##  7      149.    -25.4                   179
##  8      150.    -34.3                   172
##  9      150.    -32.6                   169
## 10      124.    -32.4                   163
## # … with 11 more rows
…
